…
En el presente ejemplo dejo el deploy con del caso de la gaceta 0016 de
Colombia.

## Partes más importantes del texto

``` r
colombia <- read_rds('/Volumes/Daniel/BID/Bases_rds_BID/colombia.rds')
colombia%>%
  count(Comunicado, sort = TRUE)
```

    ## # A tibble: 57 x 2
    ##    Comunicado     n
    ##    <chr>      <int>
    ##  1 0010           1
    ##  2 0016           1
    ##  3 0023           1
    ##  4 09_2015        1
    ##  5 1021           1
    ##  6 114_2015       1
    ##  7 130            1
    ##  8 146            1
    ##  9 178            1
    ## 10 179            1
    ## # … with 47 more rows
…
``` r
library(textmineR)
library(textreuse)
#article_sentences
```

Ejemplo con el documento

``` r
library(udpipe)
tagger <- udpipe_download_model("spanish")
article_sentences
```

    ## # A tibble: 46 x 2
    ##    textrank_id sentence                                                         
    ##          <int> <chr>                                                            
    ##  1           1 gaceta del congreso  16  miércoles, 6 de febrero de 2013 página …
    ##  2           2 2. el doctor albeiro vanegas osorio, representante a la cámara p…
    ##  3           3 22477.11 doctor hernando hernández tapasco representante a la cá…
    ##  4           4 2. proyecto de acto legislativo número 056  de 2012 cámara,  los…
    ##  5           5 3. proyecto de ley número 100 de 2011 cámara,  por la cual se vi…
    ##  6           6 5. proyecto de ley número 201 de 2012 cámara,  por el cual se cr…
    ##  7           7 secretario general, doctor jesús alfonso rodríguez camargo: prop…
    ##  8           8 secretario general, doctor jesús alfonso rodríguez camargo: han …
    ##  9           9 un intelectual de primera  categoría, tal vez no milita en ningú…
    ## 10          10 subsecretaria, doctora flor marina daza  ramírez: señor presiden…
    ## # … with 36 more rows
…
